Projeto Métodos de Aprendizagem Não supervisionados - PCA na base de dados com Imputação
…
IrlandaNoImput$Intelligence <- pc6sc$scores[,1] # RC2 - Resultados Escolares
IrlandaNoImput$Socioeconomic <- pc6sc$scores[,2] # RC3 - Estatuto socio-económico
IrlandaNoImput$SchoolSupport <- pc6sc$scores[,3] # RC1 - Apoio por parte do professor
IrlandaNoImput$Hapiness <- pc6sc$scores[,4] # RC5 - Alegria e bem-estar interior 
IrlandaNoImput$CareerAwareness <- pc6sc$scores[,5] # RC4 - Nível de educação e informação sobre carreiras
IrlandaNoImput$ICTKnowledge <- pc6sc$scores[,6] # RC6 - Manuseamento de ICT

dim(IrlandaNoImput)

## [1] 2004   47

IrlandaNoImput[,43:47]

## # A tibble: 2,004 × 5
##    Socioeconomic SchoolSupport Hapiness CareerAwareness ICTKnowledge
##            <dbl>         <dbl>    <dbl>           <dbl>        <dbl>
##  1         0.256        1.94    -0.275            1.67        -1.30 
##  2         1.62        -0.488   -1.09             0.581       -0.807
##  3        -0.507       -0.731    0.360           -0.892        1.01 
##  4         1.18        -0.0703   0.852            1.37        -0.200
##  5        -0.115        0.789    0.299            1.13        -1.52 
##  6         2.21         0.734    0.157           -0.729        1.59 
##  7         0.625        0.749    1.48             1.22        -1.69 
##  8         0.795       -0.362   -0.449            1.22        -0.877
##  9         0.193       -1.05     0.0498          -1.15        -1.60 
## 10        -0.229       -1.27    -0.102           -0.813       -0.248
## # ℹ 1,994 more rows
…
