Projeto Métodos de Aprendizagem Não supervisionados - PCA na base de dados sem Imputação
…
IrlandaNoImput$SA <- pc6sc$scores[,1] # RC1 - Sucesso Académico
IrlandaNoImput$ESE <- pc6sc$scores[,2] # RC3 - Estatuto socio-económico
IrlandaNoImput$APP <- pc6sc$scores[,3] # RC2 - Apoio por parte do professor
IrlandaNoImput$ABEI <- pc6sc$scores[,4] # RC4 - Alegria e bem-estar interior
IrlandaNoImput$NEIC <- pc6sc$scores[,5] # RC5 - Nível de educação e informação sobre carreiras
IrlandaNoImput$ME <- pc6sc$scores[,6] # RC6 - Mudança de escola

dim(IrlandaNoImput)

## [1] 3886   42

IrlandaNoImput[, 37:42]

## # A tibble: 3,886 × 6
##        SA    ESE     APP   ABEI   NEIC     ME
##     <dbl>  <dbl>   <dbl>  <dbl>  <dbl>  <dbl>
##  1  1.05   0.798  0.0358 -0.756  2.03  -0.447
##  2  1.03   0.232  1.61   -0.157  1.52  -0.221
##  3  0.960  0.132 -0.265   0.189  1.12  -1.33 
##  4  0.294  1.99  -0.299  -0.393 -1.66  -1.42 
##  5 -1.15   1.92  -0.224  -1.32   0.423 -1.18 
##  6 -0.628  2.22   0.355  -1.44  -1.38  -0.633
##  7  0.122 -0.252 -0.724   0.401 -1.24   2.09 
##  8  1.04   0.433 -0.289  -0.105 -0.586  1.02 
##  9 -1.87   1.21  -0.0603  0.623  1.60  -0.409
## 10  1.35   0.377 -0.286  -0.811  1.38  -1.07 
## # ℹ 3,876 more rows

IrlandaFinal<- IrlandaNoImputInc %>% select("ST004D01T", "AGE", "IMMIG", "HISCED", "FISCED", "MISCED", "ISCEDL")
IrlandaFinal <- IrlandaFinal %>% 
  bind_cols(IrlandaNoImput[, 37:42])

IrlandaFinal

## # A tibble: 3,886 × 13
##    ST004D01T   AGE IMMIG HISCED FISCED MISCED ISCEDL     SA    ESE     APP
##        <int> <dbl> <int>  <int>  <int>  <int>  <int>  <dbl>  <dbl>   <dbl>
##  1         1  16       1      6      6      6      3  1.05   0.798  0.0358
##  2         1  15.9     1      6      6      6      3  1.03   0.232  1.61  
##  3         2  16.1     1      6      6      5      3  0.960  0.132 -0.265 
##  4         2  15.8     1      5      5      4      2  0.294  1.99  -0.299 
##  5         2  15.8     1      6      6      6      3 -1.15   1.92  -0.224 
##  6         2  15.3     1      6      6      6      2 -0.628  2.22   0.355 
##  7         2  15.2     2      6      6      6      2  0.122 -0.252 -0.724 
##  8         2  15.2     2      5      5      4      2  1.04   0.433 -0.289 
##  9         1  15.8     1      6      6      4      3 -1.87   1.21  -0.0603
## 10         1  16.2     1      6      6      6      3  1.35   0.377 -0.286 
## # ℹ 3,876 more rows
## # ℹ 3 more variables: ABEI <dbl>, NEIC <dbl>, ME <dbl>
…
