Projeto Métodos de Aprendizagem Não supervisionados - PCA na base de dados com Imputação
…
IrlandaImput$SA <- pc6sc$scores[,1] # RC1 - Sucesso Académico
IrlandaImput$ESE <- pc6sc$scores[,2] # RC3 - Estatuto socio-económico
IrlandaImput$APP <- pc6sc$scores[,3] # RC2 - Apoio por parte do professor
IrlandaImput$ABEI <- pc6sc$scores[,4] # RC4 - Alegria e bem-estar interior
IrlandaImput$NEIC <- pc6sc$scores[,5] # RC5 - Nível de educação e informação sobre carreiras
IrlandaImput$ME <- pc6sc$scores[,6] # RC6 - Mudança de escola

dim(IrlandaImput)

## [1] 5456   42

IrlandaImput[, 37:42]

## # A tibble: 5,456 × 6
##        SA    ESE     APP   ABEI   NEIC     ME
##     <dbl>  <dbl>   <dbl>  <dbl>  <dbl>  <dbl>
##  1 -0.754  1.32   1.34    0.139  0.130  2.43 
##  2  1.18   0.846  0.0642 -0.766  2.00  -0.415
##  3  1.17   0.260  1.58   -0.135  1.50  -0.148
##  4  1.04   0.206 -0.256   0.206  1.17  -1.40 
##  5  0.342  2.05  -0.282  -0.398 -1.61  -1.53 
##  6 -1.04   1.98  -0.184  -1.32   0.433 -1.30 
##  7 -0.515  2.25   0.341  -1.44  -1.39  -0.712
##  8  0.288 -0.221 -0.730   0.421 -1.23   1.82 
##  9 -0.438  1.32  -0.106  -1.21  -1.09  -0.571
## 10  1.16   0.461 -0.285  -0.117 -0.619  0.900
## # ℹ 5,446 more rows

IrlandaFinal<- IrlandaImputInc %>% select("ST004D01T", "AGE", "IMMIG", "HISCED", "FISCED", "MISCED", "ISCEDL")
IrlandaFinal <- IrlandaFinal %>% 
  bind_cols(IrlandaImput[, 37:42])

IrlandaFinal

## # A tibble: 5,456 × 13
##    ST004D01T   AGE IMMIG HISCED FISCED MISCED ISCEDL     SA    ESE     APP
##        <int> <dbl> <dbl>  <dbl>  <dbl>  <dbl>  <int>  <dbl>  <dbl>   <dbl>
##  1         2  15.3  1.61      6      6      4      2 -0.754  1.32   1.34  
##  2         1  16    1         6      6      6      3  1.18   0.846  0.0642
##  3         1  15.9  1         6      6      6      3  1.17   0.260  1.58  
##  4         2  16.1  1         6      6      5      3  1.04   0.206 -0.256 
##  5         2  15.8  1         5      5      4      2  0.342  2.05  -0.282 
##  6         2  15.8  1         6      6      6      3 -1.04   1.98  -0.184 
##  7         2  15.3  1         6      6      6      2 -0.515  2.25   0.341 
##  8         2  15.2  2         6      6      6      2  0.288 -0.221 -0.730 
##  9         2  15.3  1         6      5      6      2 -0.438  1.32  -0.106 
## 10         2  15.2  2         5      5      4      2  1.16   0.461 -0.285 
## # ℹ 5,446 more rows
## # ℹ 3 more variables: ABEI <dbl>, NEIC <dbl>, ME <dbl>

IrlandaFinal[8:12]

## # A tibble: 5,456 × 5
##        SA    ESE     APP   ABEI   NEIC
##     <dbl>  <dbl>   <dbl>  <dbl>  <dbl>
##  1 -0.754  1.32   1.34    0.139  0.130
##  2  1.18   0.846  0.0642 -0.766  2.00 
##  3  1.17   0.260  1.58   -0.135  1.50 
##  4  1.04   0.206 -0.256   0.206  1.17 
##  5  0.342  2.05  -0.282  -0.398 -1.61 
##  6 -1.04   1.98  -0.184  -1.32   0.433
##  7 -0.515  2.25   0.341  -1.44  -1.39 
##  8  0.288 -0.221 -0.730   0.421 -1.23 
##  9 -0.438  1.32  -0.106  -1.21  -1.09 
## 10  1.16   0.461 -0.285  -0.117 -0.619
## # ℹ 5,446 more rows
…
IrlandaFinal[,1:7]

## # A tibble: 5,456 × 7
##    ST004D01T   AGE IMMIG HISCED FISCED MISCED ISCEDL
##        <int> <dbl> <dbl>  <dbl>  <dbl>  <dbl>  <int>
##  1         2  15.3  1.61      6      6      4      2
##  2         1  16    1         6      6      6      3
##  3         1  15.9  1         6      6      6      3
##  4         2  16.1  1         6      6      5      3
##  5         2  15.8  1         5      5      4      2
##  6         2  15.8  1         6      6      6      3
##  7         2  15.3  1         6      6      6      2
##  8         2  15.2  2         6      6      6      2
##  9         2  15.3  1         6      5      6      2
## 10         2  15.2  2         5      5      4      2
## # ℹ 5,446 more rows
…
